#
# There is insufficient memory for the Java Runtime Environment to continue.
# Native memory allocation (malloc) failed to allocate 699216 bytes for Chunk::new
# Possible reasons:
#   The system is out of physical RAM or swap space
#   In 32 bit mode, the process size limit was hit
# Possible solutions:
#   Reduce memory load on the system
#   Increase physical memory or swap space
#   Check if swap backing store is full
#   Use 64 bit Java on a 64 bit OS
#   Decrease Java heap size (-Xmx/-Xms)
#   Decrease number of Java threads
#   Decrease Java thread stack sizes (-Xss)
#   Set larger code cache with -XX:ReservedCodeCacheSize=
# This output file may be truncated or incomplete.
#
#  Out of Memory Error (allocation.cpp:390), pid=7984, tid=0x00000000000019b8
#
# JRE version: Java(TM) SE Runtime Environment (8.0_151-b12) (build 1.8.0_151-b12)
# Java VM: Java HotSpot(TM) 64-Bit Server VM (25.151-b12 mixed mode windows-amd64 compressed oops)
# Failed to write core dump. Minidumps are not enabled by default on client versions of Windows
#

---------------  T H R E A D  ---------------

Current thread (0x000000001508a800):  JavaThread "C2 CompilerThread0" daemon [_thread_in_native, id=6584, stack(0x00000000160f0000,0x00000000161f0000)]

Stack: [0x00000000160f0000,0x00000000161f0000]
[error occurred during error reporting (printing stack bounds), id 0xc0000005]

Native frames: (J=compiled Java code, j=interpreted, Vv=VM code, C=native code)


Current CompileTask:
C2:   1158  494 %     4       com.sun.tools.javac.file.ZipFileIndex$ZipDirectory::readEntry @ 102 (587 bytes)


---------------  P R O C E S S  ---------------

Java Threads: ( => current thread )
  0x00000000150eb800 JavaThread "Service Thread" daemon [_thread_blocked, id=5956, stack(0x00000000162f0000,0x00000000163f0000)]
  0x00000000150e5000 JavaThread "C1 CompilerThread1" daemon [_thread_blocked, id=2364, stack(0x00000000161f0000,0x00000000162f0000)]
=>0x000000001508a800 JavaThread "C2 CompilerThread0" daemon [_thread_in_native, id=6584, stack(0x00000000160f0000,0x00000000161f0000)]
  0x0000000015089000 JavaThread "Attach Listener" daemon [_thread_blocked, id=7444, stack(0x0000000015ff0000,0x00000000160f0000)]
  0x0000000015086000 JavaThread "Signal Dispatcher" daemon [_thread_blocked, id=6800, stack(0x0000000015ef0000,0x0000000015ff0000)]
  0x0000000015078800 JavaThread "Finalizer" daemon [_thread_blocked, id=5396, stack(0x0000000015ce0000,0x0000000015de0000)]
  0x0000000002cde000 JavaThread "Reference Handler" daemon [_thread_blocked, id=1508, stack(0x0000000015be0000,0x0000000015ce0000)]
  0x0000000002bf2800 JavaThread "main" [_thread_blocked, id=6392, stack(0x00000000029b0000,0x0000000002ab0000)]

Other Threads:
  0x0000000015055800 VMThread [stack: 0x0000000015ae0000,0x0000000015be0000] [id=1432]
  0x00000000150f8000 WatcherThread [stack: 0x0000000016540000,0x0000000016640000] [id=4752]

VM state:at safepoint (normal execution)

VM Mutex/Monitor currently owned by a thread:  ([mutex/lock_event])
[0x000000000290dbe0] Threads_lock - owner thread: 0x0000000015055800
[0x000000000290d9e0] Heap_lock - owner thread: 0x0000000002bf2800

Heap:
 PSYoungGen      total 6656K, used 6144K [0x00000000eb380000, 0x00000000eba80000, 0x0000000100000000)
  eden space 6144K, 100% used [0x00000000eb380000,0x00000000eb980000,0x00000000eb980000)
  from space 512K, 0% used [0x00000000eb980000,0x00000000eb980000,0x00000000eba00000)
  to   space 512K, 0% used [0x00000000eba00000,0x00000000eba00000,0x00000000eba80000)
 ParOldGen       total 5632K, used 3964K [0x00000000c1a00000, 0x00000000c1f80000, 0x00000000eb380000)
  object space 5632K, 70% used [0x00000000c1a00000,0x00000000c1ddf020,0x00000000c1f80000)
 Metaspace       used 7549K, capacity 8308K, committed 8448K, reserved 1056768K
  class space    used 905K, capacity 944K, committed 1024K, reserved 1048576K

Card table byte_map: [0x00000000120b0000,0x00000000122b0000] byte_map_base: 0x0000000011aa3000

Marking Bits: (ParMarkBitMap*) 0x000000006fffd850
 Begin Bits: [0x0000000012600000, 0x0000000013598000)
 End Bits:   [0x0000000013598000, 0x0000000014530000)

Polling page: 0x0000000000c10000

CodeCache: size=245760Kb used=2767Kb max_used=2767Kb free=242992Kb
 bounds [0x0000000002cf0000, 0x0000000002fb0000, 0x0000000011cf0000]
 total_blobs=808 nmethods=524 adapters=199
 compilation: enabled

Compilation events (10 events):
Event: 1.107 Thread 0x00000000150e5000  530       3       java.util.ComparableTimSort::binarySort (223 bytes)
Event: 1.108 Thread 0x00000000150e5000 nmethod 530 0x0000000002fa0ad0 code [0x0000000002fa0cc0, 0x0000000002fa1798]
Event: 1.108 Thread 0x00000000150e5000  531       2       java.util.ComparableTimSort::ensureCapacity (91 bytes)
Event: 1.109 Thread 0x00000000150e5000 nmethod 531 0x0000000002fa1c10 code [0x0000000002fa1d60, 0x0000000002fa1fb0]
Event: 1.109 Thread 0x00000000150e5000  532       2       java.util.ComparableTimSort::mergeAt (356 bytes)
Event: 1.110 Thread 0x00000000150e5000 nmethod 532 0x0000000002fa2090 code [0x0000000002fa2240, 0x0000000002fa26d8]
Event: 1.133 Thread 0x00000000150e5000  536 %     3       java.util.ComparableTimSort::countRunAndMakeAscending @ 89 (123 bytes)
Event: 1.134 Thread 0x00000000150e5000 nmethod 536% 0x0000000002fa2b50 code [0x0000000002fa2d80, 0x0000000002fa3c08]
Event: 1.134 Thread 0x00000000150e5000  537       3       java.util.ComparableTimSort::countRunAndMakeAscending (123 bytes)
Event: 1.134 Thread 0x00000000150e5000 nmethod 537 0x0000000002fa4210 code [0x0000000002fa4420, 0x0000000002fa51c8]

GC Heap History (10 events):
Event: 0.465 GC heap after
Heap after GC invocations=2 (full 0):
 PSYoungGen      total 3584K, used 496K [0x00000000eb380000, 0x00000000eb780000, 0x0000000100000000)
  eden space 3072K, 0% used [0x00000000eb380000,0x00000000eb380000,0x00000000eb680000)
  from space 512K, 96% used [0x00000000eb700000,0x00000000eb77c010,0x00000000eb780000)
  to   space 512K, 0% used [0x00000000eb680000,0x00000000eb680000,0x00000000eb700000)
 ParOldGen       total 5632K, used 56K [0x00000000c1a00000, 0x00000000c1f80000, 0x00000000eb380000)
  object space 5632K, 0% used [0x00000000c1a00000,0x00000000c1a0e000,0x00000000c1f80000)
 Metaspace       used 4190K, capacity 5324K, committed 5504K, reserved 1056768K
  class space    used 498K, capacity 520K, committed 640K, reserved 1048576K
}
Event: 0.652 GC heap before
{Heap before GC invocations=3 (full 0):
 PSYoungGen      total 3584K, used 3563K [0x00000000eb380000, 0x00000000eb780000, 0x0000000100000000)
  eden space 3072K, 99% used [0x00000000eb380000,0x00000000eb67ec40,0x00000000eb680000)
  from space 512K, 96% used [0x00000000eb700000,0x00000000eb77c010,0x00000000eb780000)
  to   space 512K, 0% used [0x00000000eb680000,0x00000000eb680000,0x00000000eb700000)
 ParOldGen       total 5632K, used 56K [0x00000000c1a00000, 0x00000000c1f80000, 0x00000000eb380000)
  object space 5632K, 0% used [0x00000000c1a00000,0x00000000c1a0e000,0x00000000c1f80000)
 Metaspace       used 5193K, capacity 6292K, committed 6656K, reserved 1056768K
  class space    used 636K, capacity 656K, committed 768K, reserved 1048576K
Event: 0.654 GC heap after
Heap after GC invocations=3 (full 0):
 PSYoungGen      total 3584K, used 495K [0x00000000eb380000, 0x00000000eba80000, 0x0000000100000000)
  eden space 3072K, 0% used [0x00000000eb380000,0x00000000eb380000,0x00000000eb680000)
  from space 512K, 96% used [0x00000000eb680000,0x00000000eb6fbc20,0x00000000eb700000)
  to   space 512K, 0% used [0x00000000eba00000,0x00000000eba00000,0x00000000eba80000)
 ParOldGen       total 5632K, used 596K [0x00000000c1a00000, 0x00000000c1f80000, 0x00000000eb380000)
  object space 5632K, 10% used [0x00000000c1a00000,0x00000000c1a95060,0x00000000c1f80000)
 Metaspace       used 5193K, capacity 6292K, committed 6656K, reserved 1056768K
  class space    used 636K, capacity 656K, committed 768K, reserved 1048576K
}
Event: 0.773 GC heap before
{Heap before GC invocations=4 (full 0):
 PSYoungGen      total 3584K, used 3567K [0x00000000eb380000, 0x00000000eba80000, 0x0000000100000000)
  eden space 3072K, 100% used [0x00000000eb380000,0x00000000eb680000,0x00000000eb680000)
  from space 512K, 96% used [0x00000000eb680000,0x00000000eb6fbc20,0x00000000eb700000)
  to   space 512K, 0% used [0x00000000eba00000,0x00000000eba00000,0x00000000eba80000)
 ParOldGen       total 5632K, used 596K [0x00000000c1a00000, 0x00000000c1f80000, 0x00000000eb380000)
  object space 5632K, 10% used [0x00000000c1a00000,0x00000000c1a95060,0x00000000c1f80000)
 Metaspace       used 6257K, capacity 7316K, committed 7552K, reserved 1056768K
  class space    used 788K, capacity 848K, committed 896K, reserved 1048576K
Event: 0.775 GC heap after
Heap after GC invocations=4 (full 0):
 PSYoungGen      total 6656K, used 480K [0x00000000eb380000, 0x00000000eba80000, 0x0000000100000000)
  eden space 6144K, 0% used [0x00000000eb380000,0x00000000eb380000,0x00000000eb980000)
  from space 512K, 93% used [0x00000000eba00000,0x00000000eba78020,0x00000000eba80000)
  to   space 512K, 0% used [0x00000000eb980000,0x00000000eb980000,0x00000000eba00000)
 ParOldGen       total 5632K, used 896K [0x00000000c1a00000, 0x00000000c1f80000, 0x00000000eb380000)
  object space 5632K, 15% used [0x00000000c1a00000,0x00000000c1ae0070,0x00000000c1f80000)
 Metaspace       used 6257K, capacity 7316K, committed 7552K, reserved 1056768K
  class space    used 788K, capacity 848K, committed 896K, reserved 1048576K
}
Event: 1.043 GC heap before
{Heap before GC invocations=5 (full 0):
 PSYoungGen      total 6656K, used 6624K [0x00000000eb380000, 0x00000000eba80000, 0x0000000100000000)
  eden space 6144K, 100% used [0x00000000eb380000,0x00000000eb980000,0x00000000eb980000)
  from space 512K, 93% used [0x00000000eba00000,0x00000000eba78020,0x00000000eba80000)
  to   space 512K, 0% used [0x00000000eb980000,0x00000000eb980000,0x00000000eba00000)
 ParOldGen       total 5632K, used 896K [0x00000000c1a00000, 0x00000000c1f80000, 0x00000000eb380000)
  object space 5632K, 15% used [0x00000000c1a00000,0x00000000c1ae0070,0x00000000c1f80000)
 Metaspace       used 7526K, capacity 8308K, committed 8448K, reserved 1056768K
  class space    used 905K, capacity 944K, committed 1024K, reserved 1048576K
Event: 1.050 GC heap after
Heap after GC invocations=5 (full 0):
 PSYoungGen      total 6656K, used 496K [0x00000000eb380000, 0x00000000eba80000, 0x0000000100000000)
  eden space 6144K, 0% used [0x00000000eb380000,0x00000000eb380000,0x00000000eb980000)
  from space 512K, 96% used [0x00000000eb980000,0x00000000eb9fc010,0x00000000eba00000)
  to   space 512K, 0% used [0x00000000eba00000,0x00000000eba00000,0x00000000eba80000)
 ParOldGen       total 5632K, used 3562K [0x00000000c1a00000, 0x00000000c1f80000, 0x00000000eb380000)
  object space 5632K, 63% used [0x00000000c1a00000,0x00000000c1d7aaa0,0x00000000c1f80000)
 Metaspace       used 7526K, capacity 8308K, committed 8448K, reserved 1056768K
  class space    used 905K, capacity 944K, committed 1024K, reserved 1048576K
}
Event: 1.050 GC heap before
{Heap before GC invocations=6 (full 1):
 PSYoungGen      total 6656K, used 496K [0x00000000eb380000, 0x00000000eba80000, 0x0000000100000000)
  eden space 6144K, 0% used [0x00000000eb380000,0x00000000eb380000,0x00000000eb980000)
  from space 512K, 96% used [0x00000000eb980000,0x00000000eb9fc010,0x00000000eba00000)
  to   space 512K, 0% used [0x00000000eba00000,0x00000000eba00000,0x00000000eba80000)
 ParOldGen       total 5632K, used 3562K [0x00000000c1a00000, 0x00000000c1f80000, 0x00000000eb380000)
  object space 5632K, 63% used [0x00000000c1a00000,0x00000000c1d7aaa0,0x00000000c1f80000)
 Metaspace       used 7526K, capacity 8308K, committed 8448K, reserved 1056768K
  class space    used 905K, capacity 944K, committed 1024K, reserved 1048576K
Event: 1.076 GC heap after
Heap after GC invocations=6 (full 1):
 PSYoungGen      total 6656K, used 0K [0x00000000eb380000, 0x00000000eba80000, 0x0000000100000000)
  eden space 6144K, 0% used [0x00000000eb380000,0x00000000eb380000,0x00000000eb980000)
  from space 512K, 0% used [0x00000000eb980000,0x00000000eb980000,0x00000000eba00000)
  to   space 512K, 0% used [0x00000000eba00000,0x00000000eba00000,0x00000000eba80000)
 ParOldGen       total 5632K, used 3964K [0x00000000c1a00000, 0x00000000c1f80000, 0x00000000eb380000)
  object space 5632K, 70% used [0x00000000c1a00000,0x00000000c1ddf020,0x00000000c1f80000)
 Metaspace       used 7526K, capacity 8308K, committed 8448K, reserved 1056768K
  class space    used 905K, capacity 944K, committed 1024K, reserved 1048576K
}
Event: 1.143 GC heap before
{Heap before GC invocations=7 (full 2):
 PSYoungGen      total 6656K, used 6144K [0x00000000eb380000, 0x00000000eba80000, 0x0000000100000000)
  eden space 6144K, 100% used [0x00000000eb380000,0x00000000eb980000,0x00000000eb980000)
  from space 512K, 0% used [0x00000000eb980000,0x00000000eb980000,0x00000000eba00000)
  to   space 512K, 0% used [0x00000000eba00000,0x00000000eba00000,0x00000000eba80000)
 ParOldGen       total 5632K, used 3964K [0x00000000c1a00000, 0x00000000c1f80000, 0x00000000eb380000)
  object space 5632K, 70% used [0x00000000c1a00000,0x00000000c1ddf020,0x00000000c1f80000)
 Metaspace       used 7549K, capacity 8308K, committed 8448K, reserved 1056768K
  class space    used 905K, capacity 944K, committed 1024K, reserved 1048576K

Deoptimization events (7 events):
Event: 0.824 Thread 0x0000000002bf2800 Uncommon trap: reason=unstable_if action=reinterpret pc=0x0000000002e66e5c method=java.lang.String.replace(CC)Ljava/lang/String; @ 26
Event: 0.829 Thread 0x0000000002bf2800 Uncommon trap: reason=class_check action=maybe_recompile pc=0x0000000002eabf7c method=sun.misc.URLClassPath.getLoader(I)Lsun/misc/URLClassPath$Loader; @ 94
Event: 0.886 Thread 0x0000000002bf2800 Uncommon trap: reason=unstable_if action=reinterpret pc=0x0000000002eca7d8 method=com.sun.tools.javac.parser.UnicodeReader.scanChar()V @ 37
Event: 0.886 Thread 0x0000000002bf2800 Uncommon trap: reason=unstable_if action=reinterpret pc=0x0000000002eca354 method=com.sun.tools.javac.parser.UnicodeReader.scanChar()V @ 37
Event: 0.886 Thread 0x0000000002bf2800 Uncommon trap: reason=unstable_if action=reinterpret pc=0x0000000002ecc148 method=com.sun.tools.javac.parser.UnicodeReader.scanChar()V @ 37
Event: 0.985 Thread 0x0000000002bf2800 Uncommon trap: reason=unstable_if action=reinterpret pc=0x0000000002f66934 method=com.sun.tools.javac.parser.JavaTokenizer.readToken()Lcom/sun/tools/javac/parser/Tokens$Token; @ 1267
Event: 0.985 Thread 0x0000000002bf2800 Uncommon trap: reason=unstable_if action=reinterpret pc=0x0000000002eb8724 method=java.lang.String.<init>([CII)V @ 18

Internal exceptions (10 events):
Event: 0.047 Thread 0x0000000002bf2800 Exception <a 'java/lang/NoSuchMethodError': Method sun.misc.Unsafe.prefetchRead(Ljava/lang/Object;J)V name or signature does not match> (0x00000000eb387fc0) thrown at [C:\re\workspace\8-2-build-windows-amd64-cygwin\jdk8u151\9699\hotspot\src\share\vm\prims
Event: 0.150 Thread 0x0000000002bf2800 Exception <a 'java/io/FileNotFoundException'> (0x00000000eb3e4650) thrown at [C:\re\workspace\8-2-build-windows-amd64-cygwin\jdk8u151\9699\hotspot\src\share\vm\prims\jni.cpp, line 709]
Event: 0.311 Thread 0x0000000002bf2800 Exception <a 'java/security/PrivilegedActionException'> (0x00000000eb4fc220) thrown at [C:\re\workspace\8-2-build-windows-amd64-cygwin\jdk8u151\9699\hotspot\src\share\vm\prims\jvm.cpp, line 1390]
Event: 0.311 Thread 0x0000000002bf2800 Exception <a 'java/security/PrivilegedActionException'> (0x00000000eb4fc618) thrown at [C:\re\workspace\8-2-build-windows-amd64-cygwin\jdk8u151\9699\hotspot\src\share\vm\prims\jvm.cpp, line 1390]
Event: 0.320 Thread 0x0000000002bf2800 Exception <a 'java/security/PrivilegedActionException'> (0x00000000eb388268) thrown at [C:\re\workspace\8-2-build-windows-amd64-cygwin\jdk8u151\9699\hotspot\src\share\vm\prims\jvm.cpp, line 1390]
Event: 0.320 Thread 0x0000000002bf2800 Exception <a 'java/security/PrivilegedActionException'> (0x00000000eb388660) thrown at [C:\re\workspace\8-2-build-windows-amd64-cygwin\jdk8u151\9699\hotspot\src\share\vm\prims\jvm.cpp, line 1390]
Event: 0.327 Thread 0x0000000002bf2800 Exception <a 'java/security/PrivilegedActionException'> (0x00000000eb3bdb80) thrown at [C:\re\workspace\8-2-build-windows-amd64-cygwin\jdk8u151\9699\hotspot\src\share\vm\prims\jvm.cpp, line 1390]
Event: 0.327 Thread 0x0000000002bf2800 Exception <a 'java/security/PrivilegedActionException'> (0x00000000eb3bdf78) thrown at [C:\re\workspace\8-2-build-windows-amd64-cygwin\jdk8u151\9699\hotspot\src\share\vm\prims\jvm.cpp, line 1390]
Event: 1.111 Thread 0x0000000002bf2800 Exception <a 'java/io/FileNotFoundException'> (0x00000000eb6025f8) thrown at [C:\re\workspace\8-2-build-windows-amd64-cygwin\jdk8u151\9699\hotspot\src\share\vm\prims\jni.cpp, line 709]
Event: 1.116 Thread 0x0000000002bf2800 Exception <a 'java/io/FileNotFoundException'> (0x00000000eb6595f0) thrown at [C:\re\workspace\8-2-build-windows-amd64-cygwin\jdk8u151\9699\hotspot\src\share\vm\prims\jni.cpp, line 709]

Events (10 events):
Event: 1.038 loading class java/lang/StringCoding$StringEncoder done
Event: 1.043 Executing VM operation: ParallelGCFailedAllocation
Event: 1.076 Executing VM operation: ParallelGCFailedAllocation done
Event: 1.108 Thread 0x0000000002bf2800 DEOPT PACKING pc=0x0000000002f9da94 sp=0x0000000002aae380
Event: 1.108 Thread 0x0000000002bf2800 DEOPT UNPACKING pc=0x0000000002d371bf sp=0x0000000002aae0c0 mode 0
Event: 1.111 loading class com/sun/tools/javac/file/JavacFileManager$MissingArchive
Event: 1.111 loading class com/sun/tools/javac/file/JavacFileManager$MissingArchive done
Event: 1.134 Thread 0x0000000002bf2800 DEOPT PACKING pc=0x0000000002f9c257 sp=0x0000000002aae360
Event: 1.134 Thread 0x0000000002bf2800 DEOPT UNPACKING pc=0x0000000002d371bf sp=0x0000000002aae0d8 mode 0
Event: 1.143 Executing VM operation: ParallelGCFailedAllocation


Dynamic libraries:
0x00007ff7e9d20000 - 0x00007ff7e9d27000 	C:\Program Files\Java\jdk1.8.0_151\bin\javac.exe
0x00007ffb358b0000 - 0x00007ffb35a91000 	C:\Windows\SYSTEM32\ntdll.dll
0x00007ffb34fe0000 - 0x00007ffb35091000 	C:\Windows\System32\KERNEL32.DLL
0x00007ffb32940000 - 0x00007ffb32bb3000 	C:\Windows\System32\KERNELBASE.dll
0x000000006f260000 - 0x000000006f28f000 	C:\Program Files\Java\jdk1.8.0_151\bin\jli.dll
0x00007ffb35610000 - 0x00007ffb356b1000 	C:\Windows\System32\ADVAPI32.dll
0x00007ffb35750000 - 0x00007ffb357ee000 	C:\Windows\System32\msvcrt.dll
0x00007ffb34400000 - 0x00007ffb3445b000 	C:\Windows\System32\sechost.dll
0x00007ffb32d40000 - 0x00007ffb32e64000 	C:\Windows\System32\RPCRT4.dll
0x00007ffb350a0000 - 0x00007ffb35230000 	C:\Windows\System32\USER32.dll
0x00007ffb32920000 - 0x00007ffb32940000 	C:\Windows\System32\win32u.dll
0x00007ffb35720000 - 0x00007ffb35748000 	C:\Windows\System32\GDI32.dll
0x00007ffb32680000 - 0x00007ffb32812000 	C:\Windows\System32\gdi32full.dll
0x00007ffb32880000 - 0x00007ffb3291f000 	C:\Windows\System32\msvcp_win.dll
0x00007ffb32c40000 - 0x00007ffb32d38000 	C:\Windows\System32\ucrtbase.dll
0x000000006f180000 - 0x000000006f252000 	C:\Program Files\Java\jdk1.8.0_151\bin\MSVCR100.dll
0x00007ffb22660000 - 0x00007ffb228c9000 	C:\Windows\WinSxS\amd64_microsoft.windows.common-controls_6595b64144ccf1df_6.0.17134.706_none_fb43a2cb30647007\COMCTL32.dll
0x00007ffb34cb0000 - 0x00007ffb34fd2000 	C:\Windows\System32\combase.dll
0x00007ffb32bc0000 - 0x00007ffb32c3a000 	C:\Windows\System32\bcryptPrimitives.dll
0x00007ffb35850000 - 0x00007ffb3587d000 	C:\Windows\System32\IMM32.DLL
0x0000000070a10000 - 0x0000000070ae2000 	C:\Program Files\Java\jdk1.8.0_151\jre\bin\msvcr100.dll
0x000000006f7e0000 - 0x000000007007d000 	C:\Program Files\Java\jdk1.8.0_151\jre\bin\server\jvm.dll
0x00007ffb34a80000 - 0x00007ffb34a88000 	C:\Windows\System32\PSAPI.DLL
0x00007ffb24600000 - 0x00007ffb24609000 	C:\Windows\SYSTEM32\WSOCK32.dll
0x00007ffb34380000 - 0x00007ffb343ec000 	C:\Windows\System32\WS2_32.dll
0x00007ffb2fee0000 - 0x00007ffb2ff03000 	C:\Windows\SYSTEM32\WINMM.dll
0x00007ffb25140000 - 0x00007ffb2514a000 	C:\Windows\SYSTEM32\VERSION.dll
0x00007ffb2feb0000 - 0x00007ffb2feda000 	C:\Windows\SYSTEM32\WINMMBASE.dll
0x00007ffb32580000 - 0x00007ffb325c9000 	C:\Windows\System32\cfgmgr32.dll
0x00000000709c0000 - 0x00000000709cf000 	C:\Program Files\Java\jdk1.8.0_151\jre\bin\verify.dll
0x0000000070990000 - 0x00000000709b9000 	C:\Program Files\Java\jdk1.8.0_151\jre\bin\java.dll
0x0000000070970000 - 0x0000000070986000 	C:\Program Files\Java\jdk1.8.0_151\jre\bin\zip.dll
0x00007ffb32f40000 - 0x00007ffb34380000 	C:\Windows\System32\SHELL32.dll
0x00007ffb354c0000 - 0x00007ffb35569000 	C:\Windows\System32\shcore.dll
0x00007ffb31e70000 - 0x00007ffb3257d000 	C:\Windows\System32\windows.storage.dll
0x00007ffb357f0000 - 0x00007ffb35841000 	C:\Windows\System32\shlwapi.dll
0x00007ffb31c00000 - 0x00007ffb31c11000 	C:\Windows\System32\kernel.appcore.dll
0x00007ffb31bc0000 - 0x00007ffb31bdf000 	C:\Windows\System32\profapi.dll
0x00007ffb31c30000 - 0x00007ffb31c7c000 	C:\Windows\System32\powrprof.dll
0x00007ffb31c20000 - 0x00007ffb31c2a000 	C:\Windows\System32\FLTLIB.DLL

VM Arguments:
jvm_args: -Dapplication.home=C:\Program Files\Java\jdk1.8.0_151 -Xms8m 
java_command: com.sun.tools.javac.Main -d C:\Users\aluno\Documents\NetBeansProjects\marigucci\build\classes -classpath C:\Users\aluno\Documents\NetBeansProjects\marigucci\build\classes;C:\Users\aluno\Downloads\postgresql-42.2.5.jar -sourcepath C:\Users\aluno\Documents\NetBeansProjects\marigucci\build\empty -target 1.8 -encoding UTF-8 -g -processorpath C:\Users\aluno\Downloads\postgresql-42.2.5.jar;C:\Users\aluno\Documents\NetBeansProjects\marigucci\build\empty -s C:\Users\aluno\Documents\NetBeansProjects\marigucci\build\generated-sources\ap-source-output -source 1.8 C:\Users\aluno\Documents\NetBeansProjects\marigucci\src\Conexao.java C:\Users\aluno\Documents\NetBeansProjects\marigucci\src\ConsultaEstoque.java C:\Users\aluno\Documents\NetBeansProjects\marigucci\src\DetalharDados.java C:\Users\aluno\Documents\NetBeansProjects\marigucci\src\Estoque.java C:\Users\aluno\Documents\NetBeansProjects\marigucci\src\Insercao.java C:\Users\aluno\Documents\NetBeansProjects\marigucci\src\Listagem.java C:\Users\aluno\Documents\NetBeansProjects\marigucci\src\ListarEstoqueDeRoupas.java C:\Users\aluno\Documents\NetBeansProjects\marigucci\src\MariGucci.java C:\Users\aluno\Documents\NetBeansProjects\marigucci\src\PESQUISA.java C:\Users\aluno\Documents\NetBeansProjects\marigucci\src\PRINCIPAL.java C:\Users\aluno\Documents\NetBeansProjects\marigucci\src\PesquisaEstoque.java C:\Users\aluno\Documents\NetBeansProjects\marigucci\src\marigucci\Marigucci.java
java_class_path (initial): C:\Program Files\Java\jdk1.8.0_151/lib/tools.jar;C:\Program Files\Java\jdk1.8.0_151/classes
Launcher Type: SUN_STANDARD

Environment Variables:
PATH=C:\Program Files\Python37\Scripts\;C:\Program Files\Python37\;C:\Program Files\Python36\Scripts\;C:\Program Files\Python36\;C:\ProgramData\Oracle\Java\javapath;C:\Windows\system32;C:\Windows;C:\Windows\System32\Wbem;C:\Windows\System32\WindowsPowerShell\v1.0\;C:\Windows\System32\OpenSSH\;C:\Program Files (x86)\IVI Foundation\VISA\WinNT\Bin;C:\Program Files\TortoiseGit\bin;C:\Program Files (x86)\GtkSharp\2.12\bin;C:\PostgreSQL\pg11\bin;C:\Program Files\Microsoft VS Code\bin;C:\Users\aluno\AppData\Local\Microsoft\WindowsApps;
USERNAME=aluno
OS=Windows_NT
PROCESSOR_IDENTIFIER=Intel64 Family 6 Model 23 Stepping 10, GenuineIntel



---------------  S Y S T E M  ---------------

OS: Windows 10.0 , 64 bit Build 17134 (10.0.17134.706)

CPU:total 2 (initial active 2) (2 cores per cpu, 1 threads per core) family 6 model 23 stepping 10, cmov, cx8, fxsr, mmx, sse, sse2, sse3, ssse3, sse4.1, tsc

Memory: 4k page, physical 4087032k(590900k free), swap 4087032k(5364k free)

vm_info: Java HotSpot(TM) 64-Bit Server VM (25.151-b12) for windows-amd64 JRE (1.8.0_151-b12), built on Sep  5 2017 19:33:46 by "java_re" with MS VC++ 10.0 (VS2010)

time: Tue Jun 18 09:18:43 2019
elapsed time: 1 seconds (0d 0h 0m 1s)

